…
Looking into the dataset, we see that the `storey_range` variable has
varied values, which we will be renaming into a new variable called
`storey`:

``` r
resale_data %>% 
  group_by(storey_range) %>% 
  summarise(n())
```

    ## # A tibble: 25 × 2
    ##    storey_range  `n()`
    ##    <chr>         <int>
    ##  1 01 TO 03     176783
    ##  2 01 TO 05       2700
    ##  3 04 TO 06     219965
    ##  4 06 TO 10       2474
    ##  5 07 TO 09     198370
    ##  6 10 TO 12     168499
    ##  7 11 TO 15       1259
    ##  8 13 TO 15      56712
    ##  9 16 TO 18      21687
    ## 10 16 TO 20        265
    ## # … with 15 more rows
…
